<?xml version="1.0" encoding="UTF-8" standalone="no"?>
<!-- Created with Inkscape (http://www.inkscape.org/) -->

<svg
   width="155.50256mm"
   height="131.42419mm"
   viewBox="0 0 155.50256 131.42419"
   version="1.1"
   id="svg5"
   inkscape:version="1.2.2 (b0a8486541, 2022-12-01)"
   sodipodi:docname="system.svg"
   xmlns:inkscape="http://www.inkscape.org/namespaces/inkscape"
   xmlns:sodipodi="http://sodipodi.sourceforge.net/DTD/sodipodi-0.dtd"
   xmlns="http://www.w3.org/2000/svg"
   xmlns:svg="http://www.w3.org/2000/svg">
  <sodipodi:namedview
     id="namedview7"
     pagecolor="#ffffff"
     bordercolor="#666666"
     borderopacity="1.0"
     inkscape:showpageshadow="2"
     inkscape:pageopacity="0.0"
     inkscape:pagecheckerboard="0"
     inkscape:deskcolor="#d1d1d1"
     inkscape:document-units="mm"
     showgrid="false"
     inkscape:zoom="0.914906"
     inkscape:cx="281.44968"
     inkscape:cy="356.32076"
     inkscape:window-width="1920"
     inkscape:window-height="1011"
     inkscape:window-x="0"
     inkscape:window-y="0"
     inkscape:window-maximized="1"
     inkscape:current-layer="layer1" />
  <defs
     id="defs2">
    <marker
       style="overflow:visible"
       id="marker1459"
       refX="0"
       refY="0"
       orient="auto-start-reverse"
       inkscape:stockid="Arrow2"
       markerWidth="7.6999998"
       markerHeight="5.5999999"
       viewBox="0 0 7.7 5.6"
       inkscape:isstock="true"
       inkscape:collect="always"
       preserveAspectRatio="xMidYMid">
      <path
         transform="scale(0.7)"
         d="M -2,-4 9,0 -2,4 c 2,-2.33 2,-5.66 0,-8 z"
         style="fill:context-stroke;fill-rule:evenodd;stroke:none"
         id="path1457" />
    </marker>
    <marker
       style="overflow:visible"
       id="Arrow2"
       refX="0"
       refY="0"
       orient="auto-start-reverse"
       inkscape:stockid="Arrow2"
       markerWidth="7.6999998"
       markerHeight="5.5999999"
       viewBox="0 0 7.7 5.6"
       inkscape:isstock="true"
       inkscape:collect="always"
       preserveAspectRatio="xMidYMid">
      <path
         transform="scale(0.7)"
         d="M -2,-4 9,0 -2,4 c 2,-2.33 2,-5.66 0,-8 z"
         style="fill:context-stroke;fill-rule:evenodd;stroke:none"
         id="arrow2L" />
    </marker>
  </defs>
  <g
     inkscape:label="Layer 1"
     inkscape:groupmode="layer"
     id="layer1"
     transform="translate(-30.86668,-44.279079)">
    <g
       id="g1157"
       transform="translate(10.583334)">
      <rect
         style="fill:#d580ff;fill-opacity:1;stroke:#000000;stroke-width:0.5;stroke-dasharray:none"
         id="rect242"
         width="46.051537"
         height="30.439699"
         x="116.93517"
         y="46.181446" />
      <text
         xml:space="preserve"
         style="font-style:normal;font-weight:normal;font-size:10.5833px;line-height:1.25;font-family:sans-serif;letter-spacing:0px;word-spacing:0px;fill:#000000;fill-opacity:1;stroke:none;stroke-width:0.264583"
         x="127.19949"
         y="65.346779"
         id="text298"><tspan
           sodipodi:role="line"
           id="tspan296"
           style="stroke-width:0.264583"
           x="127.19949"
           y="65.346779">Shell</tspan></text>
    </g>
    <g
       id="g1167"
       transform="translate(2.949682)">
      <rect
         style="fill:#dcff80;fill-opacity:1;stroke:#000000;stroke-width:0.5;stroke-dasharray:none"
         id="rect238"
         width="71.14994"
         height="69.516457"
         x="112.01962"
         y="97.165771" />
      <rect
         style="fill:#80d6ff;fill-opacity:1;stroke:#000000;stroke-width:0.5;stroke-dasharray:none"
         id="rect240"
         width="60.720299"
         height="26.631815"
         x="117.23444"
         y="135.45679" />
      <text
         xml:space="preserve"
         style="font-style:normal;font-weight:normal;font-size:10.5833px;line-height:1.25;font-family:sans-serif;letter-spacing:0px;word-spacing:0px;fill:#000000;fill-opacity:1;stroke:none;stroke-width:0.264583"
         x="123.46178"
         y="111.89223"
         id="text302"><tspan
           sodipodi:role="line"
           id="tspan300"
           style="stroke-width:0.264583"
           x="123.46178"
           y="111.89223">Session</tspan><tspan
           sodipodi:role="line"
           style="stroke-width:0.264583"
           x="123.46178"
           y="125.12135"
           id="tspan304">manager</tspan></text>
      <text
         xml:space="preserve"
         style="font-style:normal;font-weight:normal;font-size:8.46667px;line-height:1.25;font-family:sans-serif;text-align:center;letter-spacing:0px;word-spacing:0px;text-anchor:middle;fill:#000000;fill-opacity:1;stroke:none;stroke-width:0.264583"
         x="147.59459"
         y="146.63742"
         id="text308"><tspan
           sodipodi:role="line"
           style="font-size:8.46667px;text-align:center;text-anchor:middle;stroke-width:0.264583"
           x="147.59459"
           y="146.63742"
           id="tspan478">Saved</tspan><tspan
           sodipodi:role="line"
           style="font-size:8.46667px;text-align:center;text-anchor:middle;stroke-width:0.264583"
           x="147.59459"
           y="157.22076"
           id="tspan310">restart data</tspan></text>
    </g>
    <g
       id="g1152">
      <rect
         style="fill:#ffbf80;fill-opacity:1;stroke:#000000;stroke-width:0.5;stroke-dasharray:none"
         id="rect234"
         width="45.741375"
         height="36.844212"
         x="31.11668"
         y="44.529079" />
      <rect
         style="fill:#ff8080;stroke:#000000;stroke-width:0.5;stroke-dasharray:none"
         id="rect236"
         width="38.979195"
         height="14.030752"
         x="34.497772"
         y="64.988869" />
      <text
         xml:space="preserve"
         style="font-style:normal;font-weight:normal;font-size:10.5833px;line-height:1.25;font-family:sans-serif;letter-spacing:0px;word-spacing:0px;fill:#000000;fill-opacity:1;stroke:none;stroke-width:0.264583"
         x="43.897575"
         y="57.361008"
         id="text314"><tspan
           sodipodi:role="line"
           id="tspan312"
           style="stroke-width:0.264583"
           x="43.897575"
           y="57.361008">App</tspan></text>
      <text
         xml:space="preserve"
         style="font-style:normal;font-weight:normal;font-size:8.46667px;line-height:1.25;font-family:sans-serif;letter-spacing:0px;word-spacing:0px;fill:#000000;fill-opacity:1;stroke:none;stroke-width:0.264583"
         x="40.590767"
         y="75.160645"
         id="text318"><tspan
           sodipodi:role="line"
           id="tspan316"
           style="font-size:8.46667px;stroke-width:0.264583"
           x="40.590767"
           y="75.160645">Toolkit</tspan></text>
    </g>
    <g
       id="g1144"
       transform="translate(-1.8266525,-2.5044422)">
      <rect
         style="fill:#ffbf80;fill-opacity:1;stroke:#000000;stroke-width:0.5;stroke-dasharray:none"
         id="rect234-3"
         width="45.741375"
         height="36.844212"
         x="32.943333"
         y="94.073509" />
      <rect
         style="fill:#ff8080;stroke:#000000;stroke-width:0.5;stroke-dasharray:none"
         id="rect236-6"
         width="38.979195"
         height="14.030752"
         x="36.324425"
         y="114.5333" />
      <text
         xml:space="preserve"
         style="font-style:normal;font-weight:normal;font-size:10.5833px;line-height:1.25;font-family:sans-serif;letter-spacing:0px;word-spacing:0px;fill:#000000;fill-opacity:1;stroke:none;stroke-width:0.264583"
         x="45.724228"
         y="106.90544"
         id="text314-7"><tspan
           sodipodi:role="line"
           id="tspan312-5"
           style="stroke-width:0.264583"
           x="45.724228"
           y="106.90544">App</tspan></text>
      <text
         xml:space="preserve"
         style="font-style:normal;font-weight:normal;font-size:8.46667px;line-height:1.25;font-family:sans-serif;letter-spacing:0px;word-spacing:0px;fill:#000000;fill-opacity:1;stroke:none;stroke-width:0.264583"
         x="42.417419"
         y="124.70508"
         id="text318-3"><tspan
           sodipodi:role="line"
           id="tspan316-5"
           style="font-size:8.46667px;stroke-width:0.264583"
           x="42.417419"
           y="124.70508">Toolkit</tspan></text>
    </g>
    <g
       id="g1136"
       transform="translate(2.2220325)">
      <rect
         style="fill:#ffbf80;fill-opacity:1;stroke:#000000;stroke-width:0.5;stroke-dasharray:none"
         id="rect234-6"
         width="45.741375"
         height="36.844212"
         x="28.894648"
         y="138.60905" />
      <rect
         style="fill:#ff8080;stroke:#000000;stroke-width:0.5;stroke-dasharray:none"
         id="rect236-2"
         width="38.979195"
         height="14.030752"
         x="32.275742"
         y="159.06885" />
      <text
         xml:space="preserve"
         style="font-style:normal;font-weight:normal;font-size:10.5833px;line-height:1.25;font-family:sans-serif;letter-spacing:0px;word-spacing:0px;fill:#000000;fill-opacity:1;stroke:none;stroke-width:0.264583"
         x="41.675545"
         y="151.44098"
         id="text314-9"><tspan
           sodipodi:role="line"
           id="tspan312-1"
           style="stroke-width:0.264583"
           x="41.675545"
           y="151.44098">App</tspan></text>
      <text
         xml:space="preserve"
         style="font-style:normal;font-weight:normal;font-size:8.46667px;line-height:1.25;font-family:sans-serif;letter-spacing:0px;word-spacing:0px;fill:#000000;fill-opacity:1;stroke:none;stroke-width:0.264583"
         x="38.368736"
         y="169.24062"
         id="text318-2"><tspan
           sodipodi:role="line"
           id="tspan316-7"
           style="font-size:8.46667px;stroke-width:0.264583"
           x="38.368736"
           y="169.24062">Toolkit</tspan></text>
    </g>
    <path
       style="fill:none;stroke:#000000;stroke-width:0.4;stroke-linecap:butt;stroke-linejoin:miter;stroke-dasharray:none;stroke-opacity:1;marker-start:url(#marker1459);marker-end:url(#Arrow2)"
       d="M 77.546334,61.760528 114.78091,107.85386"
       id="path1232" />
    <path
       style="fill:none;stroke:#000000;stroke-width:0.4;stroke-linecap:butt;stroke-linejoin:miter;stroke-dasharray:none;stroke-opacity:1;marker-start:url(#marker1459);marker-end:url(#Arrow2)"
       d="M 77.235679,111.03045 114.3957,122.26714"
       id="path1234" />
    <path
       style="fill:none;stroke:#000000;stroke-width:0.4;stroke-linecap:butt;stroke-linejoin:miter;stroke-dasharray:none;stroke-opacity:1;marker-start:url(#marker1459);marker-end:url(#Arrow2)"
       d="m 76.929543,155.94217 37.678527,-15.1532"
       id="path1236" />
    <path
       style="fill:none;stroke:#000000;stroke-width:0.4;stroke-linecap:butt;stroke-linejoin:miter;stroke-dasharray:none;stroke-opacity:1;marker-end:url(#Arrow2)"
       d="M 150.7209,76.128617 V 97.127784"
       id="path1238" />
    <text
       xml:space="preserve"
       style="font-style:normal;font-weight:normal;font-size:8.46667px;line-height:1.25;font-family:sans-serif;letter-spacing:0px;word-spacing:0px;fill:#000000;fill-opacity:1;stroke:none;stroke-width:0.264583"
       x="85.395149"
       y="127.54259"
       id="text3131"><tspan
         sodipodi:role="line"
         id="tspan3129"
         style="font-size:8.46667px;stroke-width:0.264583"
         x="85.395149"
         y="127.54259">D-Bus</tspan></text>
  </g>
</svg>
